{
  "PDI_ROOT": "/Users/filipeassuncao/Developer/DW_TP/data-integration",
  "UTILS": "/Users/filipeassuncao/Developer/DW_TP/utils",
  "DIM_CREATION": "/Users/filipeassuncao/Developer/DW_TP/utils/DIMENSION_CREATE",
  "FACT_CREATION": "/Users/filipeassuncao/Developer/DW_TP/utils/FACT_CREATION",
  "SO_CREATION": "/Users/filipeassuncao/Developer/DW_TP/utils/SO_CREATION",
  "DATASETS": "/Users/filipeassuncao/Developer/DW_TP/utils/THIRD_PARTY_DATASETS"
}